mc20_13TeV.516978.MGPy8EG_A14NNPDF23_3top.deriv.DAOD_PHYS.e8461_s3797_r13144_p6266
mc20_13TeV.516978.MGPy8EG_A14NNPDF23_3top.deriv.DAOD_PHYS.e8461_s3797_r13167_p6266
mc20_13TeV.516978.MGPy8EG_A14NNPDF23_3top.deriv.DAOD_PHYS.e8461_s3797_r13145_p6266


