mc20_13TeV.701085.Sh_2214_ZqqZll.deriv.DAOD_PHYS.e8547_s3797_r13144_p6266
mc20_13TeV.701085.Sh_2214_ZqqZll.deriv.DAOD_PHYS.e8547_s3797_r13145_p6266
mc20_13TeV.701085.Sh_2214_ZqqZll.deriv.DAOD_PHYS.e8547_s3797_r13167_p6266

mc20_13TeV.701090.Sh_2214_ZbbZll.deriv.DAOD_PHYS.e8547_s3797_r13144_p6266
mc20_13TeV.701090.Sh_2214_ZbbZll.deriv.DAOD_PHYS.e8547_s3797_r13145_p6266
mc20_13TeV.701090.Sh_2214_ZbbZll.deriv.DAOD_PHYS.e8547_s3797_r13167_p6266

mc20_13TeV.701095.Sh_2214_ZqqZvv.deriv.DAOD_PHYS.e8547_s3797_r13144_p6266
mc20_13TeV.701095.Sh_2214_ZqqZvv.deriv.DAOD_PHYS.e8547_s3797_r13145_p6266
mc20_13TeV.701095.Sh_2214_ZqqZvv.deriv.DAOD_PHYS.e8547_s3797_r13167_p6266

mc20_13TeV.701100.Sh_2214_ZbbZvv.deriv.DAOD_PHYS.e8547_s3797_r13144_p6266
mc20_13TeV.701100.Sh_2214_ZbbZvv.deriv.DAOD_PHYS.e8547_s3797_r13145_p6266
mc20_13TeV.701100.Sh_2214_ZbbZvv.deriv.DAOD_PHYS.e8547_s3797_r13167_p6266

mc20_13TeV.701105.Sh_2214_WqqZll.deriv.DAOD_PHYS.e8547_s3797_r13144_p6266
mc20_13TeV.701105.Sh_2214_WqqZll.deriv.DAOD_PHYS.e8547_s3797_r13145_p6266
mc20_13TeV.701105.Sh_2214_WqqZll.deriv.DAOD_PHYS.e8547_s3797_r13167_p6266

mc20_13TeV.701115.Sh_2214_WlvZqq.deriv.DAOD_PHYS.e8547_s3797_r13144_p6266
mc20_13TeV.701115.Sh_2214_WlvZqq.deriv.DAOD_PHYS.e8547_s3797_r13145_p6266
mc20_13TeV.701115.Sh_2214_WlvZqq.deriv.DAOD_PHYS.e8547_s3797_r13167_p6266

mc20_13TeV.701120.Sh_2214_WlvZbb.deriv.DAOD_PHYS.e8547_s3797_r13144_p6266
mc20_13TeV.701120.Sh_2214_WlvZbb.deriv.DAOD_PHYS.e8547_s3797_r13145_p6266
mc20_13TeV.701120.Sh_2214_WlvZbb.deriv.DAOD_PHYS.e8547_s3797_r13167_p6266

mc20_13TeV.701125.Sh_2214_WlvWqq.deriv.DAOD_PHYS.e8547_s3797_r13144_p6266
mc20_13TeV.701125.Sh_2214_WlvWqq.deriv.DAOD_PHYS.e8547_s3797_r13145_p6266
mc20_13TeV.701125.Sh_2214_WlvWqq.deriv.DAOD_PHYS.e8547_s3797_r13167_p6266
