# ggF AF3
mc23_13p6TeV.603403.PhPy8EG_PDF4LHC21_HHbbbb_chhh0p0.deriv.DAOD_PHYS.e8564_a910_r14932_p6491
mc23_13p6TeV.603403.PhPy8EG_PDF4LHC21_HHbbbb_chhh0p0.deriv.DAOD_PHYS.e8564_a911_r15224_p6491
mc23_13p6TeV.603404.PhPy8EG_PDF4LHC21_HHbbbb_chhh1p0.deriv.DAOD_PHYS.e8564_a910_r14932_p6491
mc23_13p6TeV.603404.PhPy8EG_PDF4LHC21_HHbbbb_chhh1p0.deriv.DAOD_PHYS.e8564_a911_r15224_p6491
mc23_13p6TeV.603405.PhPy8EG_PDF4LHC21_HHbbbb_chhh5p0.deriv.DAOD_PHYS.e8564_a910_r14932_p6491
mc23_13p6TeV.603405.PhPy8EG_PDF4LHC21_HHbbbb_chhh5p0.deriv.DAOD_PHYS.e8564_a911_r15224_p6491
mc23_13p6TeV.603406.PhPy8EG_PDF4LHC21_HHbbbb_chhh10p0.deriv.DAOD_PHYS.e8564_a910_r14932_p6491
mc23_13p6TeV.603406.PhPy8EG_PDF4LHC21_HHbbbb_chhh10p0.deriv.DAOD_PHYS.e8564_a911_r15224_p6491
mc23_13p6TeV.603407.PhPy8EG_PDF4LHC21_HHbbbb_chhh2p5.deriv.DAOD_PHYS.e8564_a910_r14932_p6491
mc23_13p6TeV.603407.PhPy8EG_PDF4LHC21_HHbbbb_chhh2p5.deriv.DAOD_PHYS.e8564_a911_r15224_p6491
mc23_13p6TeV.603408.PhPy8EG_PDF4LHC21_HHbbbb_chhhm1p0.deriv.DAOD_PHYS.e8564_a910_r14932_p6491
mc23_13p6TeV.603408.PhPy8EG_PDF4LHC21_HHbbbb_chhhm1p0.deriv.DAOD_PHYS.e8564_a911_r15224_p6491
# ggF FullSim
mc23_13p6TeV.603404.PhPy8EG_PDF4LHC21_HHbbbb_chhh1p0.deriv.DAOD_PHYS.e8564_s4159_r15224_p6491
mc23_13p6TeV.603404.PhPy8EG_PDF4LHC21_HHbbbb_chhh1p0.deriv.DAOD_PHYS.e8564_s4162_r14622_p6491

# VBF
mc23_13p6TeV.537533.MGPy8EG_hh_bbbb_vbf_novhh_5fs_l0cvv0cv1.deriv.DAOD_PHYS.e8557_s4159_r15224_p6491
mc23_13p6TeV.537533.MGPy8EG_hh_bbbb_vbf_novhh_5fs_l0cvv0cv1.deriv.DAOD_PHYS.e8557_s4162_r14622_p6491
mc23_13p6TeV.537534.MGPy8EG_hh_bbbb_vbf_novhh_5fs_l0cvv1cv1.deriv.DAOD_PHYS.e8557_s4159_r15224_p6491
mc23_13p6TeV.537534.MGPy8EG_hh_bbbb_vbf_novhh_5fs_l0cvv1cv1.deriv.DAOD_PHYS.e8557_s4162_r14622_p6491
mc23_13p6TeV.537535.MGPy8EG_hh_bbbb_vbf_novhh_5fs_l10cvv1cv1.deriv.DAOD_PHYS.e8557_s4159_r15224_p6491
mc23_13p6TeV.537535.MGPy8EG_hh_bbbb_vbf_novhh_5fs_l10cvv1cv1.deriv.DAOD_PHYS.e8557_s4162_r14622_p6491
mc23_13p6TeV.537536.MGPy8EG_hh_bbbb_vbf_novhh_5fs_l1cvv0cv1.deriv.DAOD_PHYS.e8557_s4159_r15224_p6491
mc23_13p6TeV.537536.MGPy8EG_hh_bbbb_vbf_novhh_5fs_l1cvv0cv1.deriv.DAOD_PHYS.e8557_s4162_r14622_p6491
mc23_13p6TeV.537537.MGPy8EG_hh_bbbb_vbf_novhh_5fs_l1cvv0p5cv1.deriv.DAOD_PHYS.e8557_s4159_r15224_p6491
mc23_13p6TeV.537537.MGPy8EG_hh_bbbb_vbf_novhh_5fs_l1cvv0p5cv1.deriv.DAOD_PHYS.e8557_s4162_r14622_p6491
mc23_13p6TeV.537538.MGPy8EG_hh_bbbb_vbf_novhh_5fs_l1cvv1cv0p5.deriv.DAOD_PHYS.e8557_s4159_r15224_p6491
mc23_13p6TeV.537538.MGPy8EG_hh_bbbb_vbf_novhh_5fs_l1cvv1cv0p5.deriv.DAOD_PHYS.e8557_s4162_r14622_p6491
mc23_13p6TeV.537539.MGPy8EG_hh_bbbb_vbf_novhh_5fs_l1cvv1cv1p5.deriv.DAOD_PHYS.e8557_s4159_r15224_p6491
mc23_13p6TeV.537539.MGPy8EG_hh_bbbb_vbf_novhh_5fs_l1cvv1cv1p5.deriv.DAOD_PHYS.e8557_s4162_r14622_p6491
mc23_13p6TeV.537540.MGPy8EG_hh_bbbb_vbf_novhh_5fs_l1cvv1cv1.deriv.DAOD_PHYS.e8557_s4159_r15224_p6491
mc23_13p6TeV.537540.MGPy8EG_hh_bbbb_vbf_novhh_5fs_l1cvv1cv1.deriv.DAOD_PHYS.e8557_s4162_r14622_p6491
mc23_13p6TeV.537541.MGPy8EG_hh_bbbb_vbf_novhh_5fs_l1cvv1p5cv1.deriv.DAOD_PHYS.e8557_s4159_r15224_p6491
mc23_13p6TeV.537541.MGPy8EG_hh_bbbb_vbf_novhh_5fs_l1cvv1p5cv1.deriv.DAOD_PHYS.e8557_s4162_r14622_p6491
mc23_13p6TeV.537542.MGPy8EG_hh_bbbb_vbf_novhh_5fs_l1cvv2cv1.deriv.DAOD_PHYS.e8557_s4159_r15224_p6491
mc23_13p6TeV.537542.MGPy8EG_hh_bbbb_vbf_novhh_5fs_l1cvv2cv1.deriv.DAOD_PHYS.e8557_s4162_r14622_p6491
mc23_13p6TeV.537543.MGPy8EG_hh_bbbb_vbf_novhh_5fs_l1cvv3cv1.deriv.DAOD_PHYS.e8557_s4159_r15224_p6491
mc23_13p6TeV.537543.MGPy8EG_hh_bbbb_vbf_novhh_5fs_l1cvv3cv1.deriv.DAOD_PHYS.e8557_s4162_r14622_p6491
mc23_13p6TeV.537544.MGPy8EG_hh_bbbb_vbf_novhh_5fs_l2cvv1cv1.deriv.DAOD_PHYS.e8557_s4159_r15224_p6491
mc23_13p6TeV.537544.MGPy8EG_hh_bbbb_vbf_novhh_5fs_l2cvv1cv1.deriv.DAOD_PHYS.e8557_s4162_r14622_p6491
mc23_13p6TeV.537545.MGPy8EG_hh_bbbb_vbf_novhh_5fs_l5mcvv1cv0p5.deriv.DAOD_PHYS.e8557_s4159_r15224_p6491
mc23_13p6TeV.537545.MGPy8EG_hh_bbbb_vbf_novhh_5fs_l5mcvv1cv0p5.deriv.DAOD_PHYS.e8557_s4162_r14622_p6491
